Nume,Prenume,Clasa,Id
IANOSI,DANIEL,XII G,1
MITROI,IOANA,XII G,2
POPA,MIHAI ,XII G,3
IONESCU,ION,XII G,4
GEORGESCU ,COSTEL,XII G,5
GAVRILA,ANDREI,XII G,6
POP ,IOAN,X A,7
POPA, DORIN,IX B,8
POPA ,DRAGOS,XI A,9
POPA ,IOAN,XII A,10
POP ,VALI,XII A,11
POPESCU ,CLAUDIA,XII A,12
POPESCU ,MIHAI,XII A,13
POPESCU, MIHAELA,XII A,14
POPESCU ,SILVIA,XII C,15
ROBU ,LAURA,XII G,16
RADU ,SERGHEI,XII B,17
RACASAN ,NICOLETA,XII B,18
RADULESCU ,MARIN,XII A,19
ROBU, OCTAVIAN,XII C,20
RUCINSCHI ,DAN CRISTIAN,XII D,21
SACERDOTIANU, DUMITRU,XII D,22
SAMOILESCU, GHEORGHE,XII D,23
SANDU ,FLORIN,XII D,24
SALCEANU, ALEXANDRU,XII D,25
SCORNEA ,AURELIA,XII B,26
SCUTARU, GHEORGHE,XII B,27
SILAGHI ,ANDREI MARIUS,XII B,28
SILAGHI , ALEXANDRU,XII A,29
SIMION, EMIL,XII A,30
NAE, GABRIEL,XII A,31
SOIMU , VALERIA,XII A,32
SOTIR, ALEXANDRU,XII A,33
STANESCU ,CONSTANTIN,XII A,34
STEFANESCU, FLORIAN,XII A,35
STOIAN, DAN,XII A,36
TEODOR, EMIL,XII A,37
TITI, VIOREL,XII A,38
TOPAN,MIHAI,XII A,39
